{
  "data": [
    {
      "capital": "Port Blair",
      "countryCode": "IN",
      "countryName": "India",
      "iso2": "AN",
      "iso31662": "IN-AN",
      "latitude": "11.70065",
      "longitude": "92.67517",
      "name": "Andaman and Nicobar",
      "population": 380581,
      "timezone": "Asia/Kolkata",
      "type": "union territory"
    },
    {
      "capital": "Amarﾄ」ati",
      "countryCode": "IN",
      "countryName": "India",
      "iso2": "AP",
      "iso31662": "IN-AP",
      "latitude": "15.83333",
      "longitude": "79.75",
      "name": "Andhra Pradesh",
      "population": 49386799,
      "timezone": "Asia/Kolkata",
      "type": "state"
    },
    {
      "capital": "Itanagar",
      "countryCode": "IN",
      "countryName": "India",
      "iso2": "AR",
      "iso31662": "IN-AR",
      "latitude": "27.06",
      "longitude": "93.37",
      "name": "Arunachal Pradesh",
      "population": 1383727,
      "timezone": "Asia/Kolkata",
      "type": "state"
    },
    {
      "capital": "Dispur",
      "countryCode": "IN",
      "countryName": "India",
      "iso2": "AS",
      "iso31662": "IN-AS",
      "latitude": "26",
      "longitude": "93",
      "name": "Assam",
      "population": 31205576,
      "timezone": "Asia/Kolkata",
      "type": "state"
    },
    {
      "capital": "Patna",
      "countryCode": "IN",
      "countryName": "India",
      "iso2": "BR",
      "iso31662": "IN-BR",
      "latitude": "25.75",
      "longitude": "85.75",
      "name": "Bihar",
      "population": 104099452,
      "timezone": "Asia/Kolkata",
      "type": "state"
    },
    {
      "capital": "Chandigarh",
      "countryCode": "IN",
      "countryName": "India",
      "iso2": "CH",
      "iso31662": "IN-CH",
      "latitude": "30.72778",
      "longitude": "76.77778",
      "name": "Chandigarh",
      "population": 1055450,
      "timezone": "Asia/Kolkata",
      "type": "union territory"
    },
    {
      "capital": "Raipur",
      "countryCode": "IN",
      "countryName": "India",
      "iso2": "CG",
      "iso31662": "IN-CG",
      "latitude": "21.5",
      "longitude": "82",
      "name": "Chhattisgarh",
      "population": 25545198,
      "timezone": "Asia/Kolkata",
      "type": "state"
    },
    {
      "capital": "Daman",
      "countryCode": "IN",
      "countryName": "India",
      "iso2": "DH",
      "iso31662": "IN-DH",
      "latitude": "20.42587",
      "longitude": "72.85112",
      "name": "Dadra and Nagar Haveli and Daman and Diu",
      "population": 585764,
      "timezone": "Asia/Kolkata",
      "type": "union territory"
    },
    {
      "capital": "Delhi",
      "countryCode": "IN",
      "countryName": "India",
      "iso2": "DL",
      "iso31662": "IN-DL",
      "latitude": "28.6667",
      "longitude": "77.1",
      "name": "Delhi",
      "population": 16787941,
      "timezone": "Asia/Kolkata",
      "type": "union territory"
    },
    {
      "capital": "Panjim",
      "countryCode": "IN",
      "countryName": "India",
      "iso2": "GA",
      "iso31662": "IN-GA",
      "latitude": "15.33333",
      "longitude": "74.08333",
      "name": "Goa",
      "population": 1458545,
      "timezone": "Asia/Kolkata",
      "type": "state"
    },
    {
      "capital": "Gandhinagar",
      "countryCode": "IN",
      "countryName": "India",
      "iso2": "GJ",
      "iso31662": "IN-GJ",
      "latitude": "23",
      "longitude": "71.75",
      "name": "Gujarat",
      "population": 60439692,
      "timezone": "Asia/Kolkata",
      "type": "state"
    },
    {
      "capital": "Chandigarh",
      "countryCode": "IN",
      "countryName": "India",
      "iso2": "HR",
      "iso31662": "IN-HR",
      "latitude": "29.25",
      "longitude": "76.33333",
      "name": "Haryana",
      "population": 25351462,
      "timezone": "Asia/Kolkata",
      "type": "state"
    },
    {
      "capital": "Shimla",
      "countryCode": "IN",
      "countryName": "India",
      "iso2": "HP",
      "iso31662": "IN-HP",
      "latitude": "31.91667",
      "longitude": "77.25",
      "name": "Himachal Pradesh",
      "population": 6864602,
      "timezone": "Asia/Kolkata",
      "type": "union territory"
    },
    {
      "capital": "Srinagar",
      "countryCode": "IN",
      "countryName": "India",
      "iso2": "JK",
      "iso31662": "IN-JK",
      "latitude": "33.5329",
      "longitude": "75.40781",
      "name": "Jammu and Kashmir",
      "population": 12258433,
      "timezone": "Asia/Kolkata",
      "type": "union territory"
    },
    {
      "capital": "Ranchi",
      "countryCode": "IN",
      "countryName": "India",
      "iso2": "JH",
      "iso31662": "IN-JH",
      "latitude": "23.75",
      "longitude": "85.5",
      "name": "Jharkhand",
      "population": 32988134,
      "timezone": "Asia/Kolkata",
      "type": "state"
    },
    {
      "capital": "Bengaluru",
      "countryCode": "IN",
      "countryName": "India",
      "iso2": "KA",
      "iso31662": "IN-KA",
      "latitude": "14.66667",
      "longitude": "75.83333",
      "name": "Karnataka",
      "population": 61095297,
      "timezone": "Asia/Kolkata",
      "type": "state"
    },
    {
      "capital": "Thiruvananthapuram",
      "countryCode": "IN",
      "countryName": "India",
      "iso2": "KL",
      "iso31662": "IN-KL",
      "latitude": "10.41667",
      "longitude": "76.5",
      "name": "Kerala",
      "population": 33406061,
      "timezone": "Asia/Kolkata",
      "type": "state"
    },
    {
      "capital": "Kargil",
      "countryCode": "IN",
      "countryName": "India",
      "iso2": "LA",
      "iso31662": "IN-LA",
      "latitude": "34.09712",
      "longitude": "77.34688",
      "name": "Ladakh",
      "population": 275000,
      "timezone": "Asia/Kolkata",
      "type": "union territory"
    },
    {
      "capital": "Kavaratti",
      "countryCode": "IN",
      "countryName": "India",
      "iso2": "LD",
      "iso31662": "IN-LD",
      "latitude": "10.93896",
      "longitude": "72.28665",
      "name": "Lakshadweep",
      "population": 64473,
      "timezone": "Asia/Kolkata",
      "type": "union territory"
    },
    {
      "capital": "Bhopal",
      "countryCode": "IN",
      "countryName": "India",
      "iso2": "MP",
      "iso31662": "IN-MP",
      "latitude": "23.5",
      "longitude": "78.5",
      "name": "Madhya Pradesh",
      "population": 72626809,
      "timezone": "Asia/Kolkata",
      "type": "state"
    },
    {
      "capital": "Mumbai",
      "countryCode": "IN",
      "countryName": "India",
      "iso2": "MH",
      "iso31662": "IN-MH",
      "latitude": "19.5",
      "longitude": "76",
      "name": "Maharashtra",
      "population": 112374333,
      "timezone": "Asia/Kolkata",
      "type": "state"
    },
    {
      "capital": "Imphal",
      "countryCode": "IN",
      "countryName": "India",
      "iso2": "MN",
      "iso31662": "IN-MN",
      "latitude": "25",
      "longitude": "94",
      "name": "Manipur",
      "population": 2855794,
      "timezone": "Asia/Kolkata",
      "type": "state"
    },
    {
      "capital": "Shillong",
      "countryCode": "IN",
      "countryName": "India",
      "iso2": "ML",
      "iso31662": "IN-ML",
      "latitude": "25.5",
      "longitude": "91.33333",
      "name": "Meghalaya",
      "population": 2966889,
      "timezone": "Asia/Kolkata",
      "type": "state"
    },
    {
      "capital": "Aizawl",
      "countryCode": "IN",
      "countryName": "India",
      "iso2": "MZ",
      "iso31662": "IN-MZ",
      "latitude": "23",
      "longitude": "93",
      "name": "Mizoram",
      "population": 1097206,
      "timezone": "Asia/Kolkata",
      "type": "state"
    },
    {
      "capital": "Kohima",
      "countryCode": "IN",
      "countryName": "India",
      "iso2": "NL",
      "iso31662": "IN-NL",
      "latitude": "26.08333",
      "longitude": "94.5",
      "name": "Nagaland",
      "population": 1978502,
      "timezone": "Asia/Kolkata",
      "type": "state"
    }
  ],
  "meta": {
    "total": 36,
    "limit": 25,
    "offset": 0,
    "hasMore": true,
    "cursor": "MjU"
  }
}